Pipho_K_Assignment_02
…
Part a.

Compute the gene names for the 500 most variable genes in the alpha factor experimental conditions

alpha_long <- alpha_wide %>% gather(time,expression, '0':'119',na.rm = FALSE)

gene_var <- alpha_long %>% group_by(gene) %>% summarize(exp_var = var(expression, na.rm = TRUE)) %>% arrange(desc(exp_var)) 

## `summarise()` ungrouping output (override with `.groups` argument)

most_var <- gene_var %>% slice(0:500)

print(most_var)

## # A tibble: 500 x 2
##    gene    exp_var
##    <chr>     <dbl>
##  1 YBR040W    3.60
##  2 YNR044W    2.56
##  3 YDR461W    2.47
##  4 YNR067C    2.37
##  5 YCRX18C    2.16
##  6 YJL170C    2.02
##  7 YLR286C    1.86
##  8 YGL032C    1.75
##  9 YKL164C    1.72
## 10 YPR119W    1.72
## # ... with 490 more rows
…
